{
	"alpha": {
		"start": 0.53,
		"end": 0
	},
	"scale": {
		"start": 0.0,
		"end": 0.0,
		"minimumScaleMultiplier": 1
	},
	"color": {
		"start": "#000000",
		"end": "#000000"
	},
	"speed": {
		"start": 0.1,
		"end": 0.1,
		"minimumSpeedMultiplier": 1
	},
	"acceleration": {
		"x": 0,
		"y": 0
	},
	"maxSpeed": 0,
	"startRotation": {
		"min": 0,
		"max": 360
	},
	"noRotation": true,
	"rotationSpeed": {
		"min": 0,
		"max": 0
	},
	"lifetime": {
		"min": 0.5,
		"max": 2
	},
	"blendMode": "normal",
	"frequency": 60.0,
	"emitterLifetime": 300,
	"maxParticles": 50,
	"pos": {
		"x": 0,
		"y": 0
	},
	"addAtBack": false,
	"spawnType": "circle",
	"spawnCircle": {
		"x": 0,
		"y": 32,
		"r": 50
	}
}